------------------------------------------------------------------
                      I M P O R T A N T
------------------------------------------------------------------
               Server Query Admin Account created
         loginname= "serveradmin", password= "yR1wEA0a"
         apikey= "BAAS0vLxYIXw70JO5gHFNn4cExeNL-SGdbsOOm6"
------------------------------------------------------------------


------------------------------------------------------------------
                      I M P O R T A N T
------------------------------------------------------------------
      ServerAdmin privilege key created, please use it to gain
      serveradmin rights for your virtualserver. please
      also check the doc/privilegekey_guide.txt for details.

       token=vu3r8r+uNu+ePr6FuycemuNlgrpikNKlJ0Z8gOY7
------------------------------------------------------------------


snynggKZ92Jm2+EMq0/4VdS3Upj9Y5haOVh2FM/6iRU=